{
  "$schema": "https://docs.renovatebot.com/renovate-schema.json",
  "extends": [
    "gitlab>sylva-projects/sylva-elements/renovate-config:default"
  ],
  "customManagers":[
    {
      "description": "Match docker image define in HELM_TOOLBOX",
      "customType": "regex",
      "fileMatch": ["scripts/helm-validate.sh"],
      "matchStrings": [
            "\\s+datasource=(?<datasource>.*?)\\s+.*?_IMAGE=\\${.*?:-(?<registryUrl>.*?)\/(?<depName>.*?):(?<currentValue>.*?)}"
          ],
      "registryUrlTemplate": "https://{{{ registryUrl }}}"
    }
  ]
}

